# Generated by read.py
# Fri Oct 19 13:50:05 2018

# Swarm parameters were calculated here using BOLSIG+ solver for the numerical solution of
# the Boltzmann equation for electrons in weakly ionized gases in uniform electric fields

# BOLSIG+ version: 03/2016
# Collision input data:
# --------------------------------------------------
# N2
# D:\Trabajo\bolsigplus032016-win\Cross section-O2-N2v_streamer.txt
# --------------------------------------------------
# N2(v1)
# D:\Trabajo\bolsigplus032016-win\Cross section-O2-N2v_streamer.txt
# --------------------------------------------------
# N2(v2)
# D:\Trabajo\bolsigplus032016-win\Cross section-O2-N2v_streamer.txt
# --------------------------------------------------
# N2(v3)
# D:\Trabajo\bolsigplus032016-win\Cross section-O2-N2v_streamer.txt
# --------------------------------------------------
# N2(v4)
# D:\Trabajo\bolsigplus032016-win\Cross section-O2-N2v_streamer.txt
# --------------------------------------------------
# N2(v5)
# D:\Trabajo\bolsigplus032016-win\Cross section-O2-N2v_streamer.txt
# --------------------------------------------------
# N2(v6)
# D:\Trabajo\bolsigplus032016-win\Cross section-O2-N2v_streamer.txt
# --------------------------------------------------
# N2(v7)
# D:\Trabajo\bolsigplus032016-win\Cross section-O2-N2v_streamer.txt
# --------------------------------------------------
# N2(v8)
# D:\Trabajo\bolsigplus032016-win\Cross section-O2-N2v_streamer.txt
# --------------------------------------------------
# N2(v9)
# D:\Trabajo\bolsigplus032016-win\Cross section-O2-N2v_streamer.txt
# --------------------------------------------------
# N2(v10)
# D:\Trabajo\bolsigplus032016-win\Cross section-O2-N2v_streamer.txt
# --------------------------------------------------
# O2
# D:\Trabajo\bolsigplus032016-win\Cross section-O2-N2v_streamer.txt
# --------------------------------------------------
# N2O
# D:\Trabajo\bolsigplus032016-win\Cross section-O2-N2v_streamer.txt
# --------------------------------------------------
# N
# D:\Trabajo\bolsigplus032016-win\Cross section-O2-N2v_streamer.txt
# --------------------------------------------------
# O
# D:\Trabajo\bolsigplus032016-win\Cross section-O2-N2v_streamer.txt
# --------------------------------------------------
# O3
# D:\Trabajo\bolsigplus032016-win\Cross section-O2-N2v_streamer.txt
# --------------------------------------------------
# H
# D:\Trabajo\bolsigplus032016-win\Cross section-O2-N2v_streamer.txt
# --------------------------------------------------
# CO2
# D:\Trabajo\bolsigplus032016-win\Cross section-O2-N2v_streamer.txt
# --------------------------------------------------
# CO2(0.083eV)
# D:\Trabajo\bolsigplus032016-win\Cross section-O2-N2v_streamer.txt
# --------------------------------------------------
# CO2(0.167eV)
# D:\Trabajo\bolsigplus032016-win\Cross section-O2-N2v_streamer.txt
# --------------------------------------------------
# CO2(0.252eV)
# D:\Trabajo\bolsigplus032016-win\Cross section-O2-N2v_streamer.txt
# --------------------------------------------------
# CO2(0.291eV)
# D:\Trabajo\bolsigplus032016-win\Cross section-O2-N2v_streamer.txt
# --------------------------------------------------
# CO2(0.339eV)
# D:\Trabajo\bolsigplus032016-win\Cross section-O2-N2v_streamer.txt
# --------------------------------------------------
# CO2(0.422eV)
# D:\Trabajo\bolsigplus032016-win\Cross section-O2-N2v_streamer.txt
# --------------------------------------------------
# CO2(0.505eV)
# D:\Trabajo\bolsigplus032016-win\Cross section-O2-N2v_streamer.txt
# --------------------------------------------------
# H2O
# D:\Trabajo\bolsigplus032016-win\Cross section-O2-N2v_streamer.txt
# --------------------------------------------------
# NO
# D:\Trabajo\bolsigplus032016-win\Cross section-O2-N2v_streamer.txt
# --------------------------------------------------
# CO
# D:\Trabajo\bolsigplus032016-win\Cross section-O2-N2v_streamer.txt
# 
# 
# 
# Angular frequency / N (m3/s)               0.000
# Cosine of E-B field angle                  0.000
# Gas temperature (K)                        200.0
# Excitation temperature (K)                 200.0
# Transition energy (eV)                     0.000
# Ionization degree                         0.1000E-09
# Plasma density (1/m3)                     0.1000E+12
# Ion charge parameter                       1.000
# Ion/neutral mass ratio                     1.000
# e-e momentum effects                       1.000
# Energy sharing                             1.000
# Growth model                               1.000
# Maxwellian mean energy (eV)                0.000
# # of grid points                           200.0
# Precision                                 0.1000E-09
# Convergence                               0.1000E-04
# Maximum # of iterations                    2000.
# Mole fraction N2                          0.7900
# Mole fraction N2(v1)                      0.9100E-07
# Mole fraction N2(v2)                      0.1300E-13
# Mole fraction N2(v3)                      0.2200E-20
# Mole fraction N2(v4)                      0.4700E-27
# Mole fraction N2(v5)                       0.000
# Mole fraction N2(v6)                       0.000
# Mole fraction N2(v7)                       0.000
# Mole fraction N2(v8)                       0.000
# Mole fraction N2(v9)                       0.000
# Mole fraction N2(v10)                      0.000
# Mole fraction O2                          0.2100
# Mole fraction N2O                         0.1600E-10
# Mole fraction N                           0.5300E-12
# Mole fraction O                           0.8400E-04
# Mole fraction O3                          0.3900E-06
# Mole fraction H                           0.1700E-08
# Mole fraction CO2                         0.5100E-04
# Mole fraction CO2(0.083eV)                 0.000
# Mole fraction CO2(0.167eV)                 0.000
# Mole fraction CO2(0.252eV)                 0.000
# Mole fraction CO2(0.291eV)                 0.000
# Mole fraction CO2(0.339eV)                 0.000
# Mole fraction CO2(0.422eV)                 0.000
# Mole fraction CO2(0.505eV)                 0.000
# Mole fraction H2O                         0.7600E-05
# Mole fraction NO                          0.6300E-07
# Mole fraction CO                          0.9300E-05
# Phelps database
# Hayashi database
# Morgan (Kinema Research  Software)
# Phelps database
# Phelps database
#

#
# PROCESS: N2(v2) -> N2, De-excitation
#

1.000	0.1354E-18
1.072	0.3071E-18
1.150	0.6657E-18
1.233	0.1382E-17
1.322	0.2751E-17
1.417	0.5257E-17
1.520	0.9659E-17
1.630	0.1708E-16
1.748	0.2910E-16
1.874	0.4783E-16
2.009	0.7590E-16
2.154	0.1164E-15
2.310	0.1728E-15
2.477	0.2485E-15
2.656	0.3467E-15
2.848	0.4698E-15
3.054	0.6196E-15
3.275	0.7962E-15
3.511	0.9988E-15
3.765	0.1225E-14
4.037	0.1473E-14
4.329	0.1737E-14
4.642	0.2013E-14
4.977	0.2298E-14
5.337	0.2586E-14
5.722	0.2874E-14
6.136	0.3159E-14
6.579	0.3438E-14
7.055	0.3707E-14
7.565	0.3966E-14
8.111	0.4214E-14
8.697	0.4449E-14
9.326	0.4671E-14
10.00	0.4880E-14
10.72	0.5077E-14
11.50	0.5261E-14
12.33	0.5433E-14
13.22	0.5593E-14
14.17	0.5748E-14
15.20	0.5885E-14
16.30	0.6015E-14
17.48	0.6138E-14
18.74	0.6252E-14
20.09	0.6358E-14
21.54	0.6460E-14
23.10	0.6554E-14
24.77	0.6643E-14
26.56	0.6725E-14
28.48	0.6806E-14
30.54	0.6884E-14
32.75	0.6957E-14
35.11	0.7029E-14
37.65	0.7092E-14
40.37	0.7147E-14
43.29	0.7190E-14
46.42	0.7222E-14
49.77	0.7235E-14
53.37	0.7226E-14
57.22	0.7190E-14
61.36	0.7123E-14
65.79	0.7017E-14
70.55	0.6871E-14
75.65	0.6686E-14
81.11	0.6463E-14
86.97	0.6204E-14
93.26	0.5918E-14
100.0	0.5611E-14
107.2	0.5290E-14
115.0	0.4966E-14
123.3	0.4645E-14
132.2	0.4334E-14
141.7	0.4034E-14
152.0	0.3751E-14
163.0	0.3485E-14
174.8	0.3237E-14
187.4	0.3009E-14
200.9	0.2798E-14
215.4	0.2604E-14
231.0	0.2426E-14
247.7	0.2262E-14
265.6	0.2110E-14
284.8	0.1972E-14
305.4	0.1844E-14
327.5	0.1726E-14
351.1	0.1616E-14
376.5	0.1514E-14
403.7	0.1419E-14
432.9	0.1330E-14
464.2	0.1247E-14
497.7	0.1169E-14
533.7	0.1096E-14
572.2	0.1027E-14
613.6	0.9621E-15
657.9	0.9009E-15
705.5	0.8431E-15
756.5	0.7886E-15
811.1	0.7370E-15
869.7	0.6883E-15
932.6	0.6421E-15
1000.	0.5984E-15
