# Generated by read.py
# Fri Oct 19 13:50:06 2018

# Swarm parameters were calculated here using BOLSIG+ solver for the numerical solution of
# the Boltzmann equation for electrons in weakly ionized gases in uniform electric fields

# BOLSIG+ version: 03/2016
# Collision input data:
# --------------------------------------------------
# N2
# D:\Trabajo\bolsigplus032016-win\Cross section-O2-N2v_streamer.txt
# --------------------------------------------------
# N2(v1)
# D:\Trabajo\bolsigplus032016-win\Cross section-O2-N2v_streamer.txt
# --------------------------------------------------
# N2(v2)
# D:\Trabajo\bolsigplus032016-win\Cross section-O2-N2v_streamer.txt
# --------------------------------------------------
# N2(v3)
# D:\Trabajo\bolsigplus032016-win\Cross section-O2-N2v_streamer.txt
# --------------------------------------------------
# N2(v4)
# D:\Trabajo\bolsigplus032016-win\Cross section-O2-N2v_streamer.txt
# --------------------------------------------------
# N2(v5)
# D:\Trabajo\bolsigplus032016-win\Cross section-O2-N2v_streamer.txt
# --------------------------------------------------
# N2(v6)
# D:\Trabajo\bolsigplus032016-win\Cross section-O2-N2v_streamer.txt
# --------------------------------------------------
# N2(v7)
# D:\Trabajo\bolsigplus032016-win\Cross section-O2-N2v_streamer.txt
# --------------------------------------------------
# N2(v8)
# D:\Trabajo\bolsigplus032016-win\Cross section-O2-N2v_streamer.txt
# --------------------------------------------------
# N2(v9)
# D:\Trabajo\bolsigplus032016-win\Cross section-O2-N2v_streamer.txt
# --------------------------------------------------
# N2(v10)
# D:\Trabajo\bolsigplus032016-win\Cross section-O2-N2v_streamer.txt
# --------------------------------------------------
# O2
# D:\Trabajo\bolsigplus032016-win\Cross section-O2-N2v_streamer.txt
# --------------------------------------------------
# N2O
# D:\Trabajo\bolsigplus032016-win\Cross section-O2-N2v_streamer.txt
# --------------------------------------------------
# N
# D:\Trabajo\bolsigplus032016-win\Cross section-O2-N2v_streamer.txt
# --------------------------------------------------
# O
# D:\Trabajo\bolsigplus032016-win\Cross section-O2-N2v_streamer.txt
# --------------------------------------------------
# O3
# D:\Trabajo\bolsigplus032016-win\Cross section-O2-N2v_streamer.txt
# --------------------------------------------------
# H
# D:\Trabajo\bolsigplus032016-win\Cross section-O2-N2v_streamer.txt
# --------------------------------------------------
# CO2
# D:\Trabajo\bolsigplus032016-win\Cross section-O2-N2v_streamer.txt
# --------------------------------------------------
# CO2(0.083eV)
# D:\Trabajo\bolsigplus032016-win\Cross section-O2-N2v_streamer.txt
# --------------------------------------------------
# CO2(0.167eV)
# D:\Trabajo\bolsigplus032016-win\Cross section-O2-N2v_streamer.txt
# --------------------------------------------------
# CO2(0.252eV)
# D:\Trabajo\bolsigplus032016-win\Cross section-O2-N2v_streamer.txt
# --------------------------------------------------
# CO2(0.291eV)
# D:\Trabajo\bolsigplus032016-win\Cross section-O2-N2v_streamer.txt
# --------------------------------------------------
# CO2(0.339eV)
# D:\Trabajo\bolsigplus032016-win\Cross section-O2-N2v_streamer.txt
# --------------------------------------------------
# CO2(0.422eV)
# D:\Trabajo\bolsigplus032016-win\Cross section-O2-N2v_streamer.txt
# --------------------------------------------------
# CO2(0.505eV)
# D:\Trabajo\bolsigplus032016-win\Cross section-O2-N2v_streamer.txt
# --------------------------------------------------
# H2O
# D:\Trabajo\bolsigplus032016-win\Cross section-O2-N2v_streamer.txt
# --------------------------------------------------
# NO
# D:\Trabajo\bolsigplus032016-win\Cross section-O2-N2v_streamer.txt
# --------------------------------------------------
# CO
# D:\Trabajo\bolsigplus032016-win\Cross section-O2-N2v_streamer.txt
# 
# 
# 
# Angular frequency / N (m3/s)               0.000
# Cosine of E-B field angle                  0.000
# Gas temperature (K)                        200.0
# Excitation temperature (K)                 200.0
# Transition energy (eV)                     0.000
# Ionization degree                         0.1000E-09
# Plasma density (1/m3)                     0.1000E+12
# Ion charge parameter                       1.000
# Ion/neutral mass ratio                     1.000
# e-e momentum effects                       1.000
# Energy sharing                             1.000
# Growth model                               1.000
# Maxwellian mean energy (eV)                0.000
# # of grid points                           200.0
# Precision                                 0.1000E-09
# Convergence                               0.1000E-04
# Maximum # of iterations                    2000.
# Mole fraction N2                          0.7900
# Mole fraction N2(v1)                      0.9100E-07
# Mole fraction N2(v2)                      0.1300E-13
# Mole fraction N2(v3)                      0.2200E-20
# Mole fraction N2(v4)                      0.4700E-27
# Mole fraction N2(v5)                       0.000
# Mole fraction N2(v6)                       0.000
# Mole fraction N2(v7)                       0.000
# Mole fraction N2(v8)                       0.000
# Mole fraction N2(v9)                       0.000
# Mole fraction N2(v10)                      0.000
# Mole fraction O2                          0.2100
# Mole fraction N2O                         0.1600E-10
# Mole fraction N                           0.5300E-12
# Mole fraction O                           0.8400E-04
# Mole fraction O3                          0.3900E-06
# Mole fraction H                           0.1700E-08
# Mole fraction CO2                         0.5100E-04
# Mole fraction CO2(0.083eV)                 0.000
# Mole fraction CO2(0.167eV)                 0.000
# Mole fraction CO2(0.252eV)                 0.000
# Mole fraction CO2(0.291eV)                 0.000
# Mole fraction CO2(0.339eV)                 0.000
# Mole fraction CO2(0.422eV)                 0.000
# Mole fraction CO2(0.505eV)                 0.000
# Mole fraction H2O                         0.7600E-05
# Mole fraction NO                          0.6300E-07
# Mole fraction CO                          0.9300E-05
# Phelps database
# Hayashi database
# Morgan (Kinema Research  Software)
# Phelps database
# Phelps database
#

#
# PROCESS: E + N2 -> E + N2(v9), Excitation
#

1.000	0.000
1.072	0.000
1.150	0.000
1.233	0.000
1.322	0.000
1.417	0.000
1.520	0.000
1.630	0.000
1.748	0.000
1.874	0.000
2.009	0.000
2.154	0.000
2.310	0.000
2.477	0.000
2.656	0.000
2.848	0.000
3.054	0.000
3.275	0.000
3.511	0.000
3.765	0.000
4.037	0.000
4.329	0.000
4.642	0.000
4.977	0.000
5.337	0.000
5.722	0.000
6.136	0.000
6.579	0.9728E-29
7.055	0.6547E-28
7.565	0.3934E-27
8.111	0.2122E-26
8.697	0.1033E-25
9.326	0.4568E-25
10.00	0.1844E-24
10.72	0.6885E-24
11.50	0.2348E-23
12.33	0.7517E-23
13.22	0.2279E-22
14.17	0.6561E-22
15.20	0.1736E-21
16.30	0.4197E-21
17.48	0.9785E-21
18.74	0.2144E-20
20.09	0.4502E-20
21.54	0.9131E-20
23.10	0.1769E-19
24.77	0.3307E-19
26.56	0.6002E-19
28.48	0.1049E-18
30.54	0.1776E-18
32.75	0.2920E-18
35.11	0.4677E-18
37.65	0.7262E-18
40.37	0.1098E-17
43.29	0.1616E-17
46.42	0.2321E-17
49.77	0.3247E-17
53.37	0.4430E-17
57.22	0.5899E-17
61.36	0.7670E-17
65.79	0.9727E-17
70.55	0.1205E-16
75.65	0.1458E-16
81.11	0.1723E-16
86.97	0.1994E-16
93.26	0.2261E-16
100.0	0.2514E-16
107.2	0.2746E-16
115.0	0.2950E-16
123.3	0.3123E-16
132.2	0.3261E-16
141.7	0.3368E-16
152.0	0.3442E-16
163.0	0.3488E-16
174.8	0.3506E-16
187.4	0.3501E-16
200.9	0.3475E-16
215.4	0.3431E-16
231.0	0.3373E-16
247.7	0.3303E-16
265.6	0.3223E-16
284.8	0.3135E-16
305.4	0.3041E-16
327.5	0.2942E-16
351.1	0.2840E-16
376.5	0.2735E-16
403.7	0.2628E-16
432.9	0.2521E-16
464.2	0.2413E-16
497.7	0.2306E-16
533.7	0.2200E-16
572.2	0.2095E-16
613.6	0.1992E-16
657.9	0.1890E-16
705.5	0.1791E-16
756.5	0.1694E-16
811.1	0.1600E-16
869.7	0.1508E-16
932.6	0.1419E-16
1000.	0.1333E-16
