# Generated by read.py
# Fri Oct 19 13:50:05 2018

# Swarm parameters were calculated here using BOLSIG+ solver for the numerical solution of
# the Boltzmann equation for electrons in weakly ionized gases in uniform electric fields

# BOLSIG+ version: 03/2016
# Collision input data:
# --------------------------------------------------
# N2
# D:\Trabajo\bolsigplus032016-win\Cross section-O2-N2v_streamer.txt
# --------------------------------------------------
# N2(v1)
# D:\Trabajo\bolsigplus032016-win\Cross section-O2-N2v_streamer.txt
# --------------------------------------------------
# N2(v2)
# D:\Trabajo\bolsigplus032016-win\Cross section-O2-N2v_streamer.txt
# --------------------------------------------------
# N2(v3)
# D:\Trabajo\bolsigplus032016-win\Cross section-O2-N2v_streamer.txt
# --------------------------------------------------
# N2(v4)
# D:\Trabajo\bolsigplus032016-win\Cross section-O2-N2v_streamer.txt
# --------------------------------------------------
# N2(v5)
# D:\Trabajo\bolsigplus032016-win\Cross section-O2-N2v_streamer.txt
# --------------------------------------------------
# N2(v6)
# D:\Trabajo\bolsigplus032016-win\Cross section-O2-N2v_streamer.txt
# --------------------------------------------------
# N2(v7)
# D:\Trabajo\bolsigplus032016-win\Cross section-O2-N2v_streamer.txt
# --------------------------------------------------
# N2(v8)
# D:\Trabajo\bolsigplus032016-win\Cross section-O2-N2v_streamer.txt
# --------------------------------------------------
# N2(v9)
# D:\Trabajo\bolsigplus032016-win\Cross section-O2-N2v_streamer.txt
# --------------------------------------------------
# N2(v10)
# D:\Trabajo\bolsigplus032016-win\Cross section-O2-N2v_streamer.txt
# --------------------------------------------------
# O2
# D:\Trabajo\bolsigplus032016-win\Cross section-O2-N2v_streamer.txt
# --------------------------------------------------
# N2O
# D:\Trabajo\bolsigplus032016-win\Cross section-O2-N2v_streamer.txt
# --------------------------------------------------
# N
# D:\Trabajo\bolsigplus032016-win\Cross section-O2-N2v_streamer.txt
# --------------------------------------------------
# O
# D:\Trabajo\bolsigplus032016-win\Cross section-O2-N2v_streamer.txt
# --------------------------------------------------
# O3
# D:\Trabajo\bolsigplus032016-win\Cross section-O2-N2v_streamer.txt
# --------------------------------------------------
# H
# D:\Trabajo\bolsigplus032016-win\Cross section-O2-N2v_streamer.txt
# --------------------------------------------------
# CO2
# D:\Trabajo\bolsigplus032016-win\Cross section-O2-N2v_streamer.txt
# --------------------------------------------------
# CO2(0.083eV)
# D:\Trabajo\bolsigplus032016-win\Cross section-O2-N2v_streamer.txt
# --------------------------------------------------
# CO2(0.167eV)
# D:\Trabajo\bolsigplus032016-win\Cross section-O2-N2v_streamer.txt
# --------------------------------------------------
# CO2(0.252eV)
# D:\Trabajo\bolsigplus032016-win\Cross section-O2-N2v_streamer.txt
# --------------------------------------------------
# CO2(0.291eV)
# D:\Trabajo\bolsigplus032016-win\Cross section-O2-N2v_streamer.txt
# --------------------------------------------------
# CO2(0.339eV)
# D:\Trabajo\bolsigplus032016-win\Cross section-O2-N2v_streamer.txt
# --------------------------------------------------
# CO2(0.422eV)
# D:\Trabajo\bolsigplus032016-win\Cross section-O2-N2v_streamer.txt
# --------------------------------------------------
# CO2(0.505eV)
# D:\Trabajo\bolsigplus032016-win\Cross section-O2-N2v_streamer.txt
# --------------------------------------------------
# H2O
# D:\Trabajo\bolsigplus032016-win\Cross section-O2-N2v_streamer.txt
# --------------------------------------------------
# NO
# D:\Trabajo\bolsigplus032016-win\Cross section-O2-N2v_streamer.txt
# --------------------------------------------------
# CO
# D:\Trabajo\bolsigplus032016-win\Cross section-O2-N2v_streamer.txt
# 
# 
# 
# Angular frequency / N (m3/s)               0.000
# Cosine of E-B field angle                  0.000
# Gas temperature (K)                        200.0
# Excitation temperature (K)                 200.0
# Transition energy (eV)                     0.000
# Ionization degree                         0.1000E-09
# Plasma density (1/m3)                     0.1000E+12
# Ion charge parameter                       1.000
# Ion/neutral mass ratio                     1.000
# e-e momentum effects                       1.000
# Energy sharing                             1.000
# Growth model                               1.000
# Maxwellian mean energy (eV)                0.000
# # of grid points                           200.0
# Precision                                 0.1000E-09
# Convergence                               0.1000E-04
# Maximum # of iterations                    2000.
# Mole fraction N2                          0.7900
# Mole fraction N2(v1)                      0.9100E-07
# Mole fraction N2(v2)                      0.1300E-13
# Mole fraction N2(v3)                      0.2200E-20
# Mole fraction N2(v4)                      0.4700E-27
# Mole fraction N2(v5)                       0.000
# Mole fraction N2(v6)                       0.000
# Mole fraction N2(v7)                       0.000
# Mole fraction N2(v8)                       0.000
# Mole fraction N2(v9)                       0.000
# Mole fraction N2(v10)                      0.000
# Mole fraction O2                          0.2100
# Mole fraction N2O                         0.1600E-10
# Mole fraction N                           0.5300E-12
# Mole fraction O                           0.8400E-04
# Mole fraction O3                          0.3900E-06
# Mole fraction H                           0.1700E-08
# Mole fraction CO2                         0.5100E-04
# Mole fraction CO2(0.083eV)                 0.000
# Mole fraction CO2(0.167eV)                 0.000
# Mole fraction CO2(0.252eV)                 0.000
# Mole fraction CO2(0.291eV)                 0.000
# Mole fraction CO2(0.339eV)                 0.000
# Mole fraction CO2(0.422eV)                 0.000
# Mole fraction CO2(0.505eV)                 0.000
# Mole fraction H2O                         0.7600E-05
# Mole fraction NO                          0.6300E-07
# Mole fraction CO                          0.9300E-05
# Phelps database
# Hayashi database
# Morgan (Kinema Research  Software)
# Phelps database
# Phelps database
#

#
# PROCESS: E + N2 -> E + N2(v1), Excitation
#

1.000	0.2387E-17
1.072	0.2654E-17
1.150	0.2955E-17
1.233	0.3301E-17
1.322	0.3707E-17
1.417	0.4197E-17
1.520	0.4802E-17
1.630	0.5563E-17
1.748	0.6537E-17
1.874	0.7793E-17
2.009	0.9411E-17
2.154	0.1148E-16
2.310	0.1410E-16
2.477	0.1734E-16
2.656	0.2128E-16
2.848	0.2597E-16
3.054	0.3141E-16
3.275	0.3758E-16
3.511	0.4440E-16
3.765	0.5178E-16
4.037	0.5958E-16
4.329	0.6767E-16
4.642	0.7588E-16
4.977	0.8409E-16
5.337	0.9214E-16
5.722	0.9993E-16
6.136	0.1074E-15
6.579	0.1143E-15
7.055	0.1208E-15
7.565	0.1268E-15
8.111	0.1322E-15
8.697	0.1371E-15
9.326	0.1414E-15
10.00	0.1453E-15
10.72	0.1486E-15
11.50	0.1515E-15
12.33	0.1540E-15
13.22	0.1560E-15
14.17	0.1578E-15
15.20	0.1590E-15
16.30	0.1601E-15
17.48	0.1608E-15
18.74	0.1613E-15
20.09	0.1616E-15
21.54	0.1616E-15
23.10	0.1615E-15
24.77	0.1611E-15
26.56	0.1606E-15
28.48	0.1600E-15
30.54	0.1593E-15
32.75	0.1585E-15
35.11	0.1577E-15
37.65	0.1569E-15
40.37	0.1562E-15
43.29	0.1556E-15
46.42	0.1555E-15
49.77	0.1559E-15
53.37	0.1571E-15
57.22	0.1592E-15
61.36	0.1626E-15
65.79	0.1674E-15
70.55	0.1738E-15
75.65	0.1821E-15
81.11	0.1920E-15
86.97	0.2037E-15
93.26	0.2170E-15
100.0	0.2315E-15
107.2	0.2472E-15
115.0	0.2636E-15
123.3	0.2804E-15
132.2	0.2975E-15
141.7	0.3147E-15
152.0	0.3319E-15
163.0	0.3490E-15
174.8	0.3661E-15
187.4	0.3830E-15
200.9	0.3999E-15
215.4	0.4169E-15
231.0	0.4341E-15
247.7	0.4515E-15
265.6	0.4693E-15
284.8	0.4874E-15
305.4	0.5060E-15
327.5	0.5251E-15
351.1	0.5448E-15
376.5	0.5650E-15
403.7	0.5857E-15
432.9	0.6067E-15
464.2	0.6281E-15
497.7	0.6497E-15
533.7	0.6713E-15
572.2	0.6927E-15
613.6	0.7137E-15
657.9	0.7342E-15
705.5	0.7539E-15
756.5	0.7726E-15
811.1	0.7901E-15
869.7	0.8061E-15
932.6	0.8204E-15
1000.	0.8329E-15
