# Generated by read.py
# Fri Oct 19 13:50:05 2018

# Swarm parameters were calculated here using BOLSIG+ solver for the numerical solution of
# the Boltzmann equation for electrons in weakly ionized gases in uniform electric fields

# BOLSIG+ version: 03/2016
# Collision input data:
# --------------------------------------------------
# N2
# D:\Trabajo\bolsigplus032016-win\Cross section-O2-N2v_streamer.txt
# --------------------------------------------------
# N2(v1)
# D:\Trabajo\bolsigplus032016-win\Cross section-O2-N2v_streamer.txt
# --------------------------------------------------
# N2(v2)
# D:\Trabajo\bolsigplus032016-win\Cross section-O2-N2v_streamer.txt
# --------------------------------------------------
# N2(v3)
# D:\Trabajo\bolsigplus032016-win\Cross section-O2-N2v_streamer.txt
# --------------------------------------------------
# N2(v4)
# D:\Trabajo\bolsigplus032016-win\Cross section-O2-N2v_streamer.txt
# --------------------------------------------------
# N2(v5)
# D:\Trabajo\bolsigplus032016-win\Cross section-O2-N2v_streamer.txt
# --------------------------------------------------
# N2(v6)
# D:\Trabajo\bolsigplus032016-win\Cross section-O2-N2v_streamer.txt
# --------------------------------------------------
# N2(v7)
# D:\Trabajo\bolsigplus032016-win\Cross section-O2-N2v_streamer.txt
# --------------------------------------------------
# N2(v8)
# D:\Trabajo\bolsigplus032016-win\Cross section-O2-N2v_streamer.txt
# --------------------------------------------------
# N2(v9)
# D:\Trabajo\bolsigplus032016-win\Cross section-O2-N2v_streamer.txt
# --------------------------------------------------
# N2(v10)
# D:\Trabajo\bolsigplus032016-win\Cross section-O2-N2v_streamer.txt
# --------------------------------------------------
# O2
# D:\Trabajo\bolsigplus032016-win\Cross section-O2-N2v_streamer.txt
# --------------------------------------------------
# N2O
# D:\Trabajo\bolsigplus032016-win\Cross section-O2-N2v_streamer.txt
# --------------------------------------------------
# N
# D:\Trabajo\bolsigplus032016-win\Cross section-O2-N2v_streamer.txt
# --------------------------------------------------
# O
# D:\Trabajo\bolsigplus032016-win\Cross section-O2-N2v_streamer.txt
# --------------------------------------------------
# O3
# D:\Trabajo\bolsigplus032016-win\Cross section-O2-N2v_streamer.txt
# --------------------------------------------------
# H
# D:\Trabajo\bolsigplus032016-win\Cross section-O2-N2v_streamer.txt
# --------------------------------------------------
# CO2
# D:\Trabajo\bolsigplus032016-win\Cross section-O2-N2v_streamer.txt
# --------------------------------------------------
# CO2(0.083eV)
# D:\Trabajo\bolsigplus032016-win\Cross section-O2-N2v_streamer.txt
# --------------------------------------------------
# CO2(0.167eV)
# D:\Trabajo\bolsigplus032016-win\Cross section-O2-N2v_streamer.txt
# --------------------------------------------------
# CO2(0.252eV)
# D:\Trabajo\bolsigplus032016-win\Cross section-O2-N2v_streamer.txt
# --------------------------------------------------
# CO2(0.291eV)
# D:\Trabajo\bolsigplus032016-win\Cross section-O2-N2v_streamer.txt
# --------------------------------------------------
# CO2(0.339eV)
# D:\Trabajo\bolsigplus032016-win\Cross section-O2-N2v_streamer.txt
# --------------------------------------------------
# CO2(0.422eV)
# D:\Trabajo\bolsigplus032016-win\Cross section-O2-N2v_streamer.txt
# --------------------------------------------------
# CO2(0.505eV)
# D:\Trabajo\bolsigplus032016-win\Cross section-O2-N2v_streamer.txt
# --------------------------------------------------
# H2O
# D:\Trabajo\bolsigplus032016-win\Cross section-O2-N2v_streamer.txt
# --------------------------------------------------
# NO
# D:\Trabajo\bolsigplus032016-win\Cross section-O2-N2v_streamer.txt
# --------------------------------------------------
# CO
# D:\Trabajo\bolsigplus032016-win\Cross section-O2-N2v_streamer.txt
# 
# 
# 
# Angular frequency / N (m3/s)               0.000
# Cosine of E-B field angle                  0.000
# Gas temperature (K)                        200.0
# Excitation temperature (K)                 200.0
# Transition energy (eV)                     0.000
# Ionization degree                         0.1000E-09
# Plasma density (1/m3)                     0.1000E+12
# Ion charge parameter                       1.000
# Ion/neutral mass ratio                     1.000
# e-e momentum effects                       1.000
# Energy sharing                             1.000
# Growth model                               1.000
# Maxwellian mean energy (eV)                0.000
# # of grid points                           200.0
# Precision                                 0.1000E-09
# Convergence                               0.1000E-04
# Maximum # of iterations                    2000.
# Mole fraction N2                          0.7900
# Mole fraction N2(v1)                      0.9100E-07
# Mole fraction N2(v2)                      0.1300E-13
# Mole fraction N2(v3)                      0.2200E-20
# Mole fraction N2(v4)                      0.4700E-27
# Mole fraction N2(v5)                       0.000
# Mole fraction N2(v6)                       0.000
# Mole fraction N2(v7)                       0.000
# Mole fraction N2(v8)                       0.000
# Mole fraction N2(v9)                       0.000
# Mole fraction N2(v10)                      0.000
# Mole fraction O2                          0.2100
# Mole fraction N2O                         0.1600E-10
# Mole fraction N                           0.5300E-12
# Mole fraction O                           0.8400E-04
# Mole fraction O3                          0.3900E-06
# Mole fraction H                           0.1700E-08
# Mole fraction CO2                         0.5100E-04
# Mole fraction CO2(0.083eV)                 0.000
# Mole fraction CO2(0.167eV)                 0.000
# Mole fraction CO2(0.252eV)                 0.000
# Mole fraction CO2(0.291eV)                 0.000
# Mole fraction CO2(0.339eV)                 0.000
# Mole fraction CO2(0.422eV)                 0.000
# Mole fraction CO2(0.505eV)                 0.000
# Mole fraction H2O                         0.7600E-05
# Mole fraction NO                          0.6300E-07
# Mole fraction CO                          0.9300E-05
# Phelps database
# Hayashi database
# Morgan (Kinema Research  Software)
# Phelps database
# Phelps database
#

#
# PROCESS: E + N2 -> E + N2(v1res), Excitation
#

1.000	0.2098E-22
1.072	0.7145E-22
1.150	0.2262E-21
1.233	0.6682E-21
1.322	0.1848E-20
1.417	0.4802E-20
1.520	0.1176E-19
1.630	0.2721E-19
1.748	0.5968E-19
1.874	0.1244E-18
2.009	0.2468E-18
2.154	0.4674E-18
2.310	0.8467E-18
2.477	0.1470E-17
2.656	0.2454E-17
2.848	0.3942E-17
3.054	0.6113E-17
3.275	0.9169E-17
3.511	0.1333E-16
3.765	0.1884E-16
4.037	0.2593E-16
4.329	0.3483E-16
4.642	0.4576E-16
4.977	0.5893E-16
5.337	0.7453E-16
5.722	0.9272E-16
6.136	0.1137E-15
6.579	0.1375E-15
7.055	0.1644E-15
7.565	0.1944E-15
8.111	0.2278E-15
8.697	0.2646E-15
9.326	0.3049E-15
10.00	0.3489E-15
10.72	0.3967E-15
11.50	0.4485E-15
12.33	0.5045E-15
13.22	0.5645E-15
14.17	0.6295E-15
15.20	0.6984E-15
16.30	0.7727E-15
17.48	0.8523E-15
18.74	0.9373E-15
20.09	0.1028E-14
21.54	0.1125E-14
23.10	0.1229E-14
24.77	0.1340E-14
26.56	0.1457E-14
28.48	0.1584E-14
30.54	0.1719E-14
32.75	0.1864E-14
35.11	0.2018E-14
37.65	0.2182E-14
40.37	0.2356E-14
43.29	0.2538E-14
46.42	0.2729E-14
49.77	0.2927E-14
53.37	0.3128E-14
57.22	0.3329E-14
61.36	0.3526E-14
65.79	0.3711E-14
70.55	0.3880E-14
75.65	0.4027E-14
81.11	0.4146E-14
86.97	0.4234E-14
93.26	0.4289E-14
100.0	0.4311E-14
107.2	0.4300E-14
115.0	0.4260E-14
123.3	0.4194E-14
132.2	0.4106E-14
141.7	0.4002E-14
152.0	0.3884E-14
163.0	0.3758E-14
174.8	0.3625E-14
187.4	0.3488E-14
200.9	0.3351E-14
215.4	0.3213E-14
231.0	0.3076E-14
247.7	0.2941E-14
265.6	0.2809E-14
284.8	0.2681E-14
305.4	0.2555E-14
327.5	0.2434E-14
351.1	0.2316E-14
376.5	0.2202E-14
403.7	0.2092E-14
432.9	0.1985E-14
464.2	0.1882E-14
497.7	0.1782E-14
533.7	0.1686E-14
572.2	0.1594E-14
613.6	0.1505E-14
657.9	0.1419E-14
705.5	0.1337E-14
756.5	0.1258E-14
811.1	0.1182E-14
869.7	0.1109E-14
932.6	0.1039E-14
1000.	0.9725E-15
