# Generated by read.py
# Fri Oct 19 13:50:05 2018

# Swarm parameters were calculated here using BOLSIG+ solver for the numerical solution of
# the Boltzmann equation for electrons in weakly ionized gases in uniform electric fields

# BOLSIG+ version: 03/2016
# Collision input data:
# --------------------------------------------------
# N2
# D:\Trabajo\bolsigplus032016-win\Cross section-O2-N2v_streamer.txt
# --------------------------------------------------
# N2(v1)
# D:\Trabajo\bolsigplus032016-win\Cross section-O2-N2v_streamer.txt
# --------------------------------------------------
# N2(v2)
# D:\Trabajo\bolsigplus032016-win\Cross section-O2-N2v_streamer.txt
# --------------------------------------------------
# N2(v3)
# D:\Trabajo\bolsigplus032016-win\Cross section-O2-N2v_streamer.txt
# --------------------------------------------------
# N2(v4)
# D:\Trabajo\bolsigplus032016-win\Cross section-O2-N2v_streamer.txt
# --------------------------------------------------
# N2(v5)
# D:\Trabajo\bolsigplus032016-win\Cross section-O2-N2v_streamer.txt
# --------------------------------------------------
# N2(v6)
# D:\Trabajo\bolsigplus032016-win\Cross section-O2-N2v_streamer.txt
# --------------------------------------------------
# N2(v7)
# D:\Trabajo\bolsigplus032016-win\Cross section-O2-N2v_streamer.txt
# --------------------------------------------------
# N2(v8)
# D:\Trabajo\bolsigplus032016-win\Cross section-O2-N2v_streamer.txt
# --------------------------------------------------
# N2(v9)
# D:\Trabajo\bolsigplus032016-win\Cross section-O2-N2v_streamer.txt
# --------------------------------------------------
# N2(v10)
# D:\Trabajo\bolsigplus032016-win\Cross section-O2-N2v_streamer.txt
# --------------------------------------------------
# O2
# D:\Trabajo\bolsigplus032016-win\Cross section-O2-N2v_streamer.txt
# --------------------------------------------------
# N2O
# D:\Trabajo\bolsigplus032016-win\Cross section-O2-N2v_streamer.txt
# --------------------------------------------------
# N
# D:\Trabajo\bolsigplus032016-win\Cross section-O2-N2v_streamer.txt
# --------------------------------------------------
# O
# D:\Trabajo\bolsigplus032016-win\Cross section-O2-N2v_streamer.txt
# --------------------------------------------------
# O3
# D:\Trabajo\bolsigplus032016-win\Cross section-O2-N2v_streamer.txt
# --------------------------------------------------
# H
# D:\Trabajo\bolsigplus032016-win\Cross section-O2-N2v_streamer.txt
# --------------------------------------------------
# CO2
# D:\Trabajo\bolsigplus032016-win\Cross section-O2-N2v_streamer.txt
# --------------------------------------------------
# CO2(0.083eV)
# D:\Trabajo\bolsigplus032016-win\Cross section-O2-N2v_streamer.txt
# --------------------------------------------------
# CO2(0.167eV)
# D:\Trabajo\bolsigplus032016-win\Cross section-O2-N2v_streamer.txt
# --------------------------------------------------
# CO2(0.252eV)
# D:\Trabajo\bolsigplus032016-win\Cross section-O2-N2v_streamer.txt
# --------------------------------------------------
# CO2(0.291eV)
# D:\Trabajo\bolsigplus032016-win\Cross section-O2-N2v_streamer.txt
# --------------------------------------------------
# CO2(0.339eV)
# D:\Trabajo\bolsigplus032016-win\Cross section-O2-N2v_streamer.txt
# --------------------------------------------------
# CO2(0.422eV)
# D:\Trabajo\bolsigplus032016-win\Cross section-O2-N2v_streamer.txt
# --------------------------------------------------
# CO2(0.505eV)
# D:\Trabajo\bolsigplus032016-win\Cross section-O2-N2v_streamer.txt
# --------------------------------------------------
# H2O
# D:\Trabajo\bolsigplus032016-win\Cross section-O2-N2v_streamer.txt
# --------------------------------------------------
# NO
# D:\Trabajo\bolsigplus032016-win\Cross section-O2-N2v_streamer.txt
# --------------------------------------------------
# CO
# D:\Trabajo\bolsigplus032016-win\Cross section-O2-N2v_streamer.txt
# 
# 
# 
# Angular frequency / N (m3/s)               0.000
# Cosine of E-B field angle                  0.000
# Gas temperature (K)                        200.0
# Excitation temperature (K)                 200.0
# Transition energy (eV)                     0.000
# Ionization degree                         0.1000E-09
# Plasma density (1/m3)                     0.1000E+12
# Ion charge parameter                       1.000
# Ion/neutral mass ratio                     1.000
# e-e momentum effects                       1.000
# Energy sharing                             1.000
# Growth model                               1.000
# Maxwellian mean energy (eV)                0.000
# # of grid points                           200.0
# Precision                                 0.1000E-09
# Convergence                               0.1000E-04
# Maximum # of iterations                    2000.
# Mole fraction N2                          0.7900
# Mole fraction N2(v1)                      0.9100E-07
# Mole fraction N2(v2)                      0.1300E-13
# Mole fraction N2(v3)                      0.2200E-20
# Mole fraction N2(v4)                      0.4700E-27
# Mole fraction N2(v5)                       0.000
# Mole fraction N2(v6)                       0.000
# Mole fraction N2(v7)                       0.000
# Mole fraction N2(v8)                       0.000
# Mole fraction N2(v9)                       0.000
# Mole fraction N2(v10)                      0.000
# Mole fraction O2                          0.2100
# Mole fraction N2O                         0.1600E-10
# Mole fraction N                           0.5300E-12
# Mole fraction O                           0.8400E-04
# Mole fraction O3                          0.3900E-06
# Mole fraction H                           0.1700E-08
# Mole fraction CO2                         0.5100E-04
# Mole fraction CO2(0.083eV)                 0.000
# Mole fraction CO2(0.167eV)                 0.000
# Mole fraction CO2(0.252eV)                 0.000
# Mole fraction CO2(0.291eV)                 0.000
# Mole fraction CO2(0.339eV)                 0.000
# Mole fraction CO2(0.422eV)                 0.000
# Mole fraction CO2(0.505eV)                 0.000
# Mole fraction H2O                         0.7600E-05
# Mole fraction NO                          0.6300E-07
# Mole fraction CO                          0.9300E-05
# Phelps database
# Hayashi database
# Morgan (Kinema Research  Software)
# Phelps database
# Phelps database
#

#
# PROCESS: E + O2, Attachment
#

1.000	0.2496E-35
1.072	0.2424E-35
1.150	0.2352E-35
1.233	0.2281E-35
1.322	0.2209E-35
1.417	0.2137E-35
1.520	0.2064E-35
1.630	0.1990E-35
1.748	0.1915E-35
1.874	0.1839E-35
2.009	0.1763E-35
2.154	0.1685E-35
2.310	0.1606E-35
2.477	0.1527E-35
2.656	0.1449E-35
2.848	0.1372E-35
3.054	0.1296E-35
3.275	0.1223E-35
3.511	0.1152E-35
3.765	0.1086E-35
4.037	0.1023E-35
4.329	0.9639E-36
4.642	0.9096E-36
4.977	0.8596E-36
5.337	0.8140E-36
5.722	0.7725E-36
6.136	0.7349E-36
6.579	0.7010E-36
7.055	0.6705E-36
7.565	0.6432E-36
8.111	0.6187E-36
8.697	0.5968E-36
9.326	0.5772E-36
10.00	0.5598E-36
10.72	0.5441E-36
11.50	0.5301E-36
12.33	0.5176E-36
13.22	0.5066E-36
14.17	0.4957E-36
15.20	0.4873E-36
16.30	0.4792E-36
17.48	0.4718E-36
18.74	0.4650E-36
20.09	0.4593E-36
21.54	0.4539E-36
23.10	0.4484E-36
24.77	0.4433E-36
26.56	0.4392E-36
28.48	0.4351E-36
30.54	0.4305E-36
32.75	0.4240E-36
35.11	0.4217E-36
37.65	0.4166E-36
40.37	0.4154E-36
43.29	0.4057E-36
46.42	0.3994E-36
49.77	0.3922E-36
53.37	0.3826E-36
57.22	0.3730E-36
61.36	0.3603E-36
65.79	0.3482E-36
70.55	0.3264E-36
75.65	0.3145E-36
81.11	0.2992E-36
86.97	0.2783E-36
93.26	0.2581E-36
100.0	0.2389E-36
107.2	0.2184E-36
115.0	0.1997E-36
123.3	0.1823E-36
132.2	0.1638E-36
141.7	0.1493E-36
152.0	0.1351E-36
163.0	0.1221E-36
174.8	0.1104E-36
187.4	0.9981E-37
200.9	0.9055E-37
215.4	0.8229E-37
231.0	0.7511E-37
247.7	0.6837E-37
265.6	0.6247E-37
284.8	0.5728E-37
305.4	0.5258E-37
327.5	0.4850E-37
351.1	0.4450E-37
376.5	0.4127E-37
403.7	0.3801E-37
432.9	0.3509E-37
464.2	0.3255E-37
497.7	0.3020E-37
533.7	0.2825E-37
572.2	0.2601E-37
613.6	0.2439E-37
657.9	0.2270E-37
705.5	0.2118E-37
756.5	0.1985E-37
811.1	0.1869E-37
869.7	0.1711E-37
932.6	0.1563E-37
1000.	0.1450E-37
